<?xml version="1.0" standalone="no"?>
<!DOCTYPE svg PUBLIC "-//W3C//DTD SVG 1.1//EN" 
 "http://www.w3.org/Graphics/SVG/1.1/DTD/svg11.dtd">
<svg width="386.0" height="376" version="1.1" xmlns="http://www.w3.org/2000/svg">
<text style='fill: blue; font-size: 24px;' x='189.609375' y='36'>S</text>
<text style='fill: blue; font-size: 24px;' x='181.5' y='118'>VP</text>
<line style='stroke:black; stroke-width:1;' x1='196' y1='87' x2='196' y2='43' />
<text style='fill: green; font-size: 24px;' x='17.0' y='200'> veo</text>
<line style='stroke:black; stroke-width:1;' x1='40' y1='169' x2='196' y2='125' />
<text style='fill: blue; font-size: 24px;' x='215.1640625' y='200'>NP</text>
<line style='stroke:black; stroke-width:1;' x1='230' y1='169' x2='196' y2='125' />
<text style='fill: blue; font-size: 24px;' x='110.1640625' y='282'>NP</text>
<line style='stroke:black; stroke-width:1;' x1='125' y1='251' x2='230' y2='207' />
<text style='fill: blue; font-size: 24px;' x='268.1640625' y='282'>PP</text>
<line style='stroke:black; stroke-width:1;' x1='281' y1='251' x2='230' y2='207' />
<text style='fill: green; font-size: 24px;' x='86.0' y='364'> al gato</text>
<polygon style='fill: white; stroke: black; stroke-width:1;' points='164 333 86 333 123 289' />
<text style='fill: green; font-size: 24px;' x='188.0' y='364'> con el telescopio</text>
<polygon style='fill: white; stroke: black; stroke-width:1;' points='374 333 188 333 279 289' />
</svg>