<?xml version="1.0" encoding="UTF-8" standalone="no"?>
<!DOCTYPE svg PUBLIC "-//W3C//DTD SVG 1.1//EN"
 "http://www.w3.org/Graphics/SVG/1.1/DTD/svg11.dtd">
<!-- Generated by graphviz version 2.40.1 (20161225.0304)
 -->
<!-- Title: %3 Pages: 1 -->
<svg width="742pt" height="340pt"
 viewBox="0.00 0.00 890.16 408.00" xmlns="http://www.w3.org/2000/svg" xmlns:xlink="http://www.w3.org/1999/xlink">
<g id="graph0" class="graph" transform="scale(.8333 .8333) rotate(0) translate(4 404)">
<title>%3</title>
<polygon fill="#ffffff" stroke="transparent" points="-4,4 -4,-404 886.1557,-404 886.1557,4 -4,4"/>
<!-- __initial__ -->
<g id="node1" class="node">
<title>__initial__</title>
</g>
<!-- q_0 -->
<g id="node2" class="node">
<title>q_0</title>
<ellipse fill="none" stroke="#000000" cx="62.0479" cy="-270" rx="24.0958" ry="24.0958"/>
<text text-anchor="middle" x="62.0479" y="-266.3" font-family="Times,serif" font-size="14.00" fill="#000000">q_0</text>
</g>
<!-- __initial__&#45;&gt;q_0 -->
<g id="edge1" class="edge">
<title>__initial__&#45;&gt;q_0</title>
<path fill="none" stroke="#000000" d="M1.1912,-270C4.0596,-270 15.445,-270 27.6057,-270"/>
<polygon fill="#000000" stroke="#000000" points="27.833,-273.5001 37.8329,-270 27.8329,-266.5001 27.833,-273.5001"/>
</g>
<!-- q_1 -->
<g id="node3" class="node">
<title>q_1</title>
<ellipse fill="none" stroke="#000000" cx="153.1436" cy="-270" rx="24.0958" ry="24.0958"/>
<text text-anchor="middle" x="153.1436" y="-266.3" font-family="Times,serif" font-size="14.00" fill="#000000">q_1</text>
</g>
<!-- q_0&#45;&gt;q_1 -->
<g id="edge2" class="edge">
<title>q_0&#45;&gt;q_1</title>
<path fill="none" stroke="#000000" d="M86.4599,-270C96.3416,-270 107.9287,-270 118.6469,-270"/>
<polygon fill="#000000" stroke="#000000" points="118.9801,-273.5001 128.9801,-270 118.9801,-266.5001 118.9801,-273.5001"/>
<text text-anchor="middle" x="107.5957" y="-273.8" font-family="Times,serif" font-size="14.00" fill="#000000">1</text>
</g>
<!-- q_2 -->
<g id="node4" class="node">
<title>q_2</title>
<ellipse fill="none" stroke="#000000" cx="666.8172" cy="-81" rx="24.0958" ry="24.0958"/>
<text text-anchor="middle" x="666.8172" y="-77.3" font-family="Times,serif" font-size="14.00" fill="#000000">q_2</text>
</g>
<!-- q_0&#45;&gt;q_2 -->
<g id="edge3" class="edge">
<title>q_0&#45;&gt;q_2</title>
<path fill="none" stroke="#000000" d="M64.9044,-246.0393C73.444,-179.9602 101.4463,0 153.1436,0 153.1436,0 153.1436,0 571.7215,0 604.75,0 632.1366,-28.6673 648.9047,-51.893"/>
<polygon fill="#000000" stroke="#000000" points="646.0341,-53.8956 654.5928,-60.1405 651.7966,-49.9213 646.0341,-53.8956"/>
<text text-anchor="middle" x="335.3351" y="-3.8" font-family="Times,serif" font-size="14.00" fill="#000000">2</text>
</g>
<!-- q_3 -->
<g id="node5" class="node">
<title>q_3</title>
<ellipse fill="none" stroke="#000000" cx="571.7215" cy="-196" rx="24.089" ry="24.089"/>
<ellipse fill="none" stroke="#000000" cx="571.7215" cy="-196" rx="28.0958" ry="28.0958"/>
<text text-anchor="middle" x="571.7215" y="-192.3" font-family="Times,serif" font-size="14.00" fill="#000000">q_3</text>
</g>
<!-- q_0&#45;&gt;q_3 -->
<g id="edge4" class="edge">
<title>q_0&#45;&gt;q_3</title>
<path fill="none" stroke="#000000" d="M68.8624,-293.272C80.3014,-326.8753 106.7877,-385 153.1436,-385 153.1436,-385 153.1436,-385 472.0761,-385 539.5064,-385 561.4175,-289.6997 568.4546,-234.4436"/>
<polygon fill="#000000" stroke="#000000" points="571.9562,-234.6333 569.6381,-224.2952 565.0033,-233.8225 571.9562,-234.6333"/>
<text text-anchor="middle" x="289.7872" y="-388.8" font-family="Times,serif" font-size="14.00" fill="#000000">5</text>
</g>
<!-- q_4 -->
<g id="node6" class="node">
<title>q_4</title>
<ellipse fill="none" stroke="#000000" cx="244.2393" cy="-125" rx="24.0958" ry="24.0958"/>
<text text-anchor="middle" x="244.2393" y="-121.3" font-family="Times,serif" font-size="14.00" fill="#000000">q_4</text>
</g>
<!-- q_1&#45;&gt;q_4 -->
<g id="edge5" class="edge">
<title>q_1&#45;&gt;q_4</title>
<path fill="none" stroke="#000000" d="M166.0022,-249.5326C181.6683,-224.5963 208.2392,-182.3025 226.0105,-154.0155"/>
<polygon fill="#000000" stroke="#000000" points="229.09,-155.6928 231.4462,-145.3633 223.1627,-151.969 229.09,-155.6928"/>
<text text-anchor="middle" x="198.6915" y="-204.8" font-family="Times,serif" font-size="14.00" fill="#000000">1</text>
</g>
<!-- q_5 -->
<g id="node7" class="node">
<title>q_5</title>
<ellipse fill="none" stroke="#000000" cx="335.3351" cy="-270" rx="24.0958" ry="24.0958"/>
<text text-anchor="middle" x="335.3351" y="-266.3" font-family="Times,serif" font-size="14.00" fill="#000000">q_5</text>
</g>
<!-- q_1&#45;&gt;q_5 -->
<g id="edge6" class="edge">
<title>q_1&#45;&gt;q_5</title>
<path fill="none" stroke="#000000" d="M177.3372,-270C209.0531,-270 264.8821,-270 300.9728,-270"/>
<polygon fill="#000000" stroke="#000000" points="301.0414,-273.5001 311.0414,-270 301.0413,-266.5001 301.0414,-273.5001"/>
<text text-anchor="middle" x="244.2393" y="-273.8" font-family="Times,serif" font-size="14.00" fill="#000000">2</text>
</g>
<!-- q_6 -->
<g id="node8" class="node">
<title>q_6</title>
<ellipse fill="none" stroke="#000000" cx="757.9129" cy="-187" rx="24.0958" ry="24.0958"/>
<text text-anchor="middle" x="757.9129" y="-183.3" font-family="Times,serif" font-size="14.00" fill="#000000">q_6</text>
</g>
<!-- q_2&#45;&gt;q_6 -->
<g id="edge7" class="edge">
<title>q_2&#45;&gt;q_6</title>
<path fill="none" stroke="#000000" d="M682.6849,-99.4638C697.3149,-116.4874 719.1809,-141.931 735.5737,-161.0059"/>
<polygon fill="#000000" stroke="#000000" points="733.0549,-163.4449 742.2271,-168.7478 738.3638,-158.8824 733.0549,-163.4449"/>
<text text-anchor="middle" x="712.3651" y="-140.8" font-family="Times,serif" font-size="14.00" fill="#000000">1</text>
</g>
<!-- q_7 -->
<g id="node9" class="node">
<title>q_7</title>
<ellipse fill="none" stroke="#000000" cx="757.9129" cy="-99" rx="24.0958" ry="24.0958"/>
<text text-anchor="middle" x="757.9129" y="-95.3" font-family="Times,serif" font-size="14.00" fill="#000000">q_7</text>
</g>
<!-- q_2&#45;&gt;q_7 -->
<g id="edge8" class="edge">
<title>q_2&#45;&gt;q_7</title>
<path fill="none" stroke="#000000" d="M690.5059,-76.7893C698.6328,-76.0709 707.7277,-76.081 715.8651,-78 719.975,-78.9692 724.1415,-80.4048 728.1739,-82.0784"/>
<polygon fill="#000000" stroke="#000000" points="726.7068,-85.2561 737.2492,-86.3086 729.6641,-78.9115 726.7068,-85.2561"/>
<text text-anchor="middle" x="712.3651" y="-81.8" font-family="Times,serif" font-size="14.00" fill="#000000">2</text>
</g>
<!-- q_3&#45;&gt;q_1 -->
<g id="edge9" class="edge">
<title>q_3&#45;&gt;q_1</title>
<path fill="none" stroke="#000000" d="M565.9945,-223.8051C555.4605,-266.1657 528.6956,-342 472.0761,-342 244.2393,-342 244.2393,-342 244.2393,-342 214.8282,-342 189.3525,-318.6141 172.8794,-298.4983"/>
<polygon fill="#000000" stroke="#000000" points="175.5054,-296.174 166.5965,-290.4397 169.9849,-300.4781 175.5054,-296.174"/>
<text text-anchor="middle" x="335.3351" y="-345.8" font-family="Times,serif" font-size="14.00" fill="#000000">1</text>
</g>
<!-- q_3&#45;&gt;q_2 -->
<g id="edge10" class="edge">
<title>q_3&#45;&gt;q_2</title>
<path fill="none" stroke="#000000" d="M583.1177,-170.0181C591.2246,-153.396 603.2353,-132.025 617.7693,-116 623.4025,-109.7889 630.3166,-104.036 637.1573,-99.0633"/>
<polygon fill="#000000" stroke="#000000" points="639.4215,-101.7541 645.6809,-93.206 635.457,-95.985 639.4215,-101.7541"/>
<text text-anchor="middle" x="621.2693" y="-119.8" font-family="Times,serif" font-size="14.00" fill="#000000">2</text>
</g>
<!-- q_3&#45;&gt;q_3 -->
<g id="edge11" class="edge">
<title>q_3&#45;&gt;q_3</title>
<path fill="none" stroke="#000000" d="M562.7566,-222.9601C562.3582,-233.3839 565.3465,-242.0479 571.7215,-242.0479 575.8054,-242.0479 578.4995,-238.4922 579.8037,-233.196"/>
<polygon fill="#000000" stroke="#000000" points="583.3142,-233.2238 580.6863,-222.9601 576.3401,-232.6224 583.3142,-233.2238"/>
<text text-anchor="middle" x="571.7215" y="-245.8479" font-family="Times,serif" font-size="14.00" fill="#000000">5</text>
</g>
<!-- q_8 -->
<g id="node10" class="node">
<title>q_8</title>
<ellipse fill="none" stroke="#000000" cx="335.3351" cy="-125" rx="24.0958" ry="24.0958"/>
<text text-anchor="middle" x="335.3351" y="-121.3" font-family="Times,serif" font-size="14.00" fill="#000000">q_8</text>
</g>
<!-- q_4&#45;&gt;q_8 -->
<g id="edge12" class="edge">
<title>q_4&#45;&gt;q_8</title>
<path fill="none" stroke="#000000" d="M268.6513,-125C278.533,-125 290.1201,-125 300.8383,-125"/>
<polygon fill="#000000" stroke="#000000" points="301.1716,-128.5001 311.1716,-125 301.1715,-121.5001 301.1716,-128.5001"/>
<text text-anchor="middle" x="289.7872" y="-128.8" font-family="Times,serif" font-size="14.00" fill="#000000">1</text>
</g>
<!-- q_9 -->
<g id="node11" class="node">
<title>q_9</title>
<ellipse fill="none" stroke="#000000" cx="401.4308" cy="-52" rx="24.0958" ry="24.0958"/>
<text text-anchor="middle" x="401.4308" y="-48.3" font-family="Times,serif" font-size="14.00" fill="#000000">q_9</text>
</g>
<!-- q_4&#45;&gt;q_9 -->
<g id="edge13" class="edge">
<title>q_4&#45;&gt;q_9</title>
<path fill="none" stroke="#000000" d="M265.8749,-114.0798C278.9587,-107.5439 296.0099,-99.1458 311.2872,-92 330.4746,-83.0254 352.1699,-73.383 369.4678,-65.8143"/>
<polygon fill="#000000" stroke="#000000" points="371.3243,-68.8232 379.0922,-61.6183 368.5267,-62.4065 371.3243,-68.8232"/>
<text text-anchor="middle" x="289.7872" y="-107.8" font-family="Times,serif" font-size="14.00" fill="#000000">2</text>
</g>
<!-- q_5&#45;&gt;q_3 -->
<g id="edge15" class="edge">
<title>q_5&#45;&gt;q_3</title>
<path fill="none" stroke="#000000" d="M358.6094,-276.4087C391.9074,-284.2648 454.2428,-294.0137 500.6736,-272 520.9647,-262.3796 538.3043,-244.1781 550.7733,-227.9995"/>
<polygon fill="#000000" stroke="#000000" points="553.7177,-229.9041 556.8397,-219.7797 548.0854,-225.7474 553.7177,-229.9041"/>
<text text-anchor="middle" x="472.0761" y="-288.8" font-family="Times,serif" font-size="14.00" fill="#000000">2</text>
</g>
<!-- q_10 -->
<g id="node12" class="node">
<title>q_10</title>
<ellipse fill="none" stroke="#000000" cx="472.0761" cy="-234" rx="28.6953" ry="28.6953"/>
<text text-anchor="middle" x="472.0761" y="-230.3" font-family="Times,serif" font-size="14.00" fill="#000000">q_10</text>
</g>
<!-- q_5&#45;&gt;q_10 -->
<g id="edge14" class="edge">
<title>q_5&#45;&gt;q_10</title>
<path fill="none" stroke="#000000" d="M358.8417,-263.8114C379.5543,-258.3583 410.1022,-250.3159 434.2508,-243.9583"/>
<polygon fill="#000000" stroke="#000000" points="435.3817,-247.2799 444.161,-241.3492 433.5995,-240.5106 435.3817,-247.2799"/>
<text text-anchor="middle" x="401.4308" y="-261.8" font-family="Times,serif" font-size="14.00" fill="#000000">1</text>
</g>
<!-- q_6&#45;&gt;q_3 -->
<g id="edge17" class="edge">
<title>q_6&#45;&gt;q_3</title>
<path fill="none" stroke="#000000" d="M733.8206,-188.1646C702.5507,-189.6761 647.6007,-192.3322 610.4435,-194.1283"/>
<polygon fill="#000000" stroke="#000000" points="609.8193,-190.6543 599.9999,-194.6331 610.1573,-197.6461 609.8193,-190.6543"/>
<text text-anchor="middle" x="666.8172" y="-195.8" font-family="Times,serif" font-size="14.00" fill="#000000">2</text>
</g>
<!-- q_11 -->
<g id="node13" class="node">
<title>q_11</title>
<ellipse fill="none" stroke="#000000" cx="853.5582" cy="-213" rx="28.6953" ry="28.6953"/>
<text text-anchor="middle" x="853.5582" y="-209.3" font-family="Times,serif" font-size="14.00" fill="#000000">q_11</text>
</g>
<!-- q_6&#45;&gt;q_11 -->
<g id="edge16" class="edge">
<title>q_6&#45;&gt;q_11</title>
<path fill="none" stroke="#000000" d="M781.5556,-193.427C791.9097,-196.2416 804.3161,-199.6141 815.8905,-202.7605"/>
<polygon fill="#000000" stroke="#000000" points="815.2073,-206.2017 825.7752,-205.4475 817.0435,-199.4468 815.2073,-206.2017"/>
<text text-anchor="middle" x="803.4608" y="-203.8" font-family="Times,serif" font-size="14.00" fill="#000000">1</text>
</g>
<!-- q_7&#45;&gt;q_3 -->
<g id="edge18" class="edge">
<title>q_7&#45;&gt;q_3</title>
<path fill="none" stroke="#000000" d="M739.2994,-114.6107C732.2129,-120.1602 723.9047,-126.2127 715.8651,-131 680.6879,-151.9469 637.5754,-170.5483 607.7127,-182.4277"/>
<polygon fill="#000000" stroke="#000000" points="606.1531,-179.2799 598.1239,-186.1924 608.7113,-185.7957 606.1531,-179.2799"/>
<text text-anchor="middle" x="666.8172" y="-170.8" font-family="Times,serif" font-size="14.00" fill="#000000">1</text>
</g>
<!-- q_8&#45;&gt;q_3 -->
<g id="edge20" class="edge">
<title>q_8&#45;&gt;q_3</title>
<path fill="none" stroke="#000000" d="M357.4752,-115.1905C390.4466,-102.1343 453.6116,-83.1927 500.6736,-106 524.549,-117.5706 542.8215,-141.4871 554.8537,-161.7585"/>
<polygon fill="#000000" stroke="#000000" points="551.8111,-163.4885 559.7833,-170.4666 557.9027,-160.04 551.8111,-163.4885"/>
<text text-anchor="middle" x="472.0761" y="-109.8" font-family="Times,serif" font-size="14.00" fill="#000000">2</text>
</g>
<!-- q_12 -->
<g id="node14" class="node">
<title>q_12</title>
<ellipse fill="none" stroke="#000000" cx="472.0761" cy="-159" rx="28.6953" ry="28.6953"/>
<text text-anchor="middle" x="472.0761" y="-155.3" font-family="Times,serif" font-size="14.00" fill="#000000">q_12</text>
</g>
<!-- q_8&#45;&gt;q_12 -->
<g id="edge19" class="edge">
<title>q_8&#45;&gt;q_12</title>
<path fill="none" stroke="#000000" d="M358.8417,-130.8448C379.5543,-135.9949 410.1022,-143.5905 434.2508,-149.5949"/>
<polygon fill="#000000" stroke="#000000" points="433.612,-153.0426 444.161,-152.0591 435.3011,-146.2494 433.612,-153.0426"/>
<text text-anchor="middle" x="401.4308" y="-150.8" font-family="Times,serif" font-size="14.00" fill="#000000">1</text>
</g>
<!-- q_9&#45;&gt;q_3 -->
<g id="edge21" class="edge">
<title>q_9&#45;&gt;q_3</title>
<path fill="none" stroke="#000000" d="M425.7516,-49.6573C446.5268,-48.6409 476.7575,-49.5457 500.6736,-60 538.9419,-76.7281 556.9848,-123.9758 565.2223,-158.0869"/>
<polygon fill="#000000" stroke="#000000" points="561.8851,-159.2031 567.4755,-168.203 568.7177,-157.6812 561.8851,-159.2031"/>
<text text-anchor="middle" x="472.0761" y="-63.8" font-family="Times,serif" font-size="14.00" fill="#000000">1</text>
</g>
<!-- q_10&#45;&gt;q_3 -->
<g id="edge22" class="edge">
<title>q_10&#45;&gt;q_3</title>
<path fill="none" stroke="#000000" d="M499.0416,-223.7167C510.4115,-219.3807 523.809,-214.2715 535.9839,-209.6286"/>
<polygon fill="#000000" stroke="#000000" points="537.3272,-212.8623 545.4237,-206.0287 534.8329,-206.3217 537.3272,-212.8623"/>
<text text-anchor="middle" x="522.1736" y="-219.8" font-family="Times,serif" font-size="14.00" fill="#000000">1</text>
</g>
<!-- q_11&#45;&gt;q_3 -->
<g id="edge23" class="edge">
<title>q_11&#45;&gt;q_3</title>
<path fill="none" stroke="#000000" d="M825.0148,-217.0793C819.059,-217.8169 812.8128,-218.5072 806.9608,-219 795.88,-219.9332 793.0786,-219.7777 781.9608,-220 708.7731,-221.4632 689.5619,-221.297 617.7693,-207 614.9731,-206.4432 612.0893,-205.8353 609.1929,-205.2004"/>
<polygon fill="#000000" stroke="#000000" points="609.9333,-201.7795 599.4059,-202.9727 608.3797,-208.6049 609.9333,-201.7795"/>
<text text-anchor="middle" x="712.3651" y="-223.8" font-family="Times,serif" font-size="14.00" fill="#000000">1</text>
</g>
<!-- q_12&#45;&gt;q_3 -->
<g id="edge24" class="edge">
<title>q_12&#45;&gt;q_3</title>
<path fill="none" stroke="#000000" d="M499.0416,-169.0127C510.4115,-173.2346 523.809,-178.2093 535.9839,-182.73"/>
<polygon fill="#000000" stroke="#000000" points="534.8308,-186.0353 545.4237,-186.2352 537.2675,-179.4731 534.8308,-186.0353"/>
<text text-anchor="middle" x="522.1736" y="-181.8" font-family="Times,serif" font-size="14.00" fill="#000000">1</text>
</g>
</g>
</svg>
