<?xml version="1.0" encoding="UTF-8" standalone="no"?>
<!DOCTYPE svg PUBLIC "-//W3C//DTD SVG 1.1//EN"
 "http://www.w3.org/Graphics/SVG/1.1/DTD/svg11.dtd">
<!-- Generated by graphviz version 2.40.1 (20161225.0304)
 -->
<!-- Title: %3 Pages: 1 -->
<svg width="161pt" height="53pt"
 viewBox="0.00 0.00 193.19 64.10" xmlns="http://www.w3.org/2000/svg" xmlns:xlink="http://www.w3.org/1999/xlink">
<g id="graph0" class="graph" transform="scale(.8333 .8333) rotate(0) translate(4 60.0957)">
<title>%3</title>
<polygon fill="#ffffff" stroke="transparent" points="-4,4 -4,-60.0957 189.1915,-60.0957 189.1915,4 -4,4"/>
<!-- __initial__ -->
<g id="node1" class="node">
<title>__initial__</title>
</g>
<!-- q_0 -->
<g id="node2" class="node">
<title>q_0</title>
<ellipse fill="none" stroke="#000000" cx="62.0479" cy="-28.0479" rx="24.0958" ry="24.0958"/>
<text text-anchor="middle" x="62.0479" y="-24.3479" font-family="Times,serif" font-size="14.00" fill="#000000">q_0</text>
</g>
<!-- __initial__&#45;&gt;q_0 -->
<g id="edge1" class="edge">
<title>__initial__&#45;&gt;q_0</title>
<path fill="none" stroke="#000000" d="M1.1912,-28.0479C4.0596,-28.0479 15.445,-28.0479 27.6057,-28.0479"/>
<polygon fill="#000000" stroke="#000000" points="27.833,-31.548 37.8329,-28.0479 27.8329,-24.548 27.833,-31.548"/>
</g>
<!-- q_1 -->
<g id="node3" class="node">
<title>q_1</title>
<ellipse fill="none" stroke="#000000" cx="157.1436" cy="-28.0479" rx="24.089" ry="24.089"/>
<ellipse fill="none" stroke="#000000" cx="157.1436" cy="-28.0479" rx="28.0958" ry="28.0958"/>
<text text-anchor="middle" x="157.1436" y="-24.3479" font-family="Times,serif" font-size="14.00" fill="#000000">q_1</text>
</g>
<!-- q_0&#45;&gt;q_1 -->
<g id="edge2" class="edge">
<title>q_0&#45;&gt;q_1</title>
<path fill="none" stroke="#000000" d="M86.5374,-28.0479C96.3794,-28.0479 107.9607,-28.0479 118.8652,-28.0479"/>
<polygon fill="#000000" stroke="#000000" points="119.0339,-31.548 129.0338,-28.0479 119.0338,-24.548 119.0339,-31.548"/>
<text text-anchor="middle" x="107.5957" y="-31.8479" font-family="Times,serif" font-size="14.00" fill="#000000">a</text>
</g>
</g>
</svg>
