<?xml version="1.0" encoding="UTF-8" standalone="no"?>
<!DOCTYPE svg PUBLIC "-//W3C//DTD SVG 1.1//EN"
 "http://www.w3.org/Graphics/SVG/1.1/DTD/svg11.dtd">
<!-- Generated by graphviz version 2.40.1 (20161225.0304)
 -->
<!-- Title: %3 Pages: 1 -->
<svg width="324pt" height="99pt"
 viewBox="0.00 0.00 388.38 118.70" xmlns="http://www.w3.org/2000/svg" xmlns:xlink="http://www.w3.org/1999/xlink">
<g id="graph0" class="graph" transform="scale(.8333 .8333) rotate(0) translate(4 114.6955)">
<title>%3</title>
<polygon fill="#ffffff" stroke="transparent" points="-4,4 -4,-114.6955 384.3818,-114.6955 384.3818,4 -4,4"/>
<!-- __initial__ -->
<g id="node1" class="node">
<title>__initial__</title>
</g>
<!-- q_0 -->
<g id="node2" class="node">
<title>q_0</title>
<ellipse fill="none" stroke="#000000" cx="62.0479" cy="-26.748" rx="24.0958" ry="24.0958"/>
<text text-anchor="middle" x="62.0479" y="-23.048" font-family="Times,serif" font-size="14.00" fill="#000000">q_0</text>
</g>
<!-- __initial__&#45;&gt;q_0 -->
<g id="edge1" class="edge">
<title>__initial__&#45;&gt;q_0</title>
<path fill="none" stroke="#000000" d="M1.1912,-26.748C4.0596,-26.748 15.445,-26.748 27.6057,-26.748"/>
<polygon fill="#000000" stroke="#000000" points="27.833,-30.2481 37.8329,-26.748 27.8329,-23.2481 27.833,-30.2481"/>
</g>
<!-- q_0ᴬ -->
<g id="node3" class="node">
<title>q_0ᴬ</title>
<ellipse fill="none" stroke="#000000" cx="157.0433" cy="-82.748" rx="27.8951" ry="27.8951"/>
<text text-anchor="middle" x="157.0433" y="-79.048" font-family="Times,serif" font-size="14.00" fill="#000000">q_0ᴬ</text>
</g>
<!-- q_0&#45;&gt;q_0ᴬ -->
<g id="edge3" class="edge">
<title>q_0&#45;&gt;q_0ᴬ</title>
<path fill="none" stroke="#000000" d="M83.1304,-39.1762C95.1473,-46.2602 110.4717,-55.294 124.0478,-63.2971"/>
<polygon fill="#000000" stroke="#000000" points="122.2724,-66.3133 132.6644,-68.3766 125.8273,-60.2831 122.2724,-66.3133"/>
<text text-anchor="middle" x="107.5957" y="-58.548" font-family="Times,serif" font-size="14.00" fill="#000000">ε</text>
</g>
<!-- q_f -->
<g id="node5" class="node">
<title>q_f</title>
<ellipse fill="none" stroke="#000000" cx="353.6338" cy="-26.748" rx="22.9609" ry="22.9609"/>
<ellipse fill="none" stroke="#000000" cx="353.6338" cy="-26.748" rx="26.9983" ry="26.9983"/>
<text text-anchor="middle" x="353.6338" y="-23.048" font-family="Times,serif" font-size="14.00" fill="#000000">q_f</text>
</g>
<!-- q_0&#45;&gt;q_f -->
<g id="edge4" class="edge">
<title>q_0&#45;&gt;q_f</title>
<path fill="none" stroke="#000000" d="M86.4068,-26.748C137.4099,-26.748 255.7174,-26.748 316.3477,-26.748"/>
<polygon fill="#000000" stroke="#000000" points="316.6179,-30.2481 326.6179,-26.748 316.6179,-23.2481 316.6179,-30.2481"/>
<text text-anchor="middle" x="206.4908" y="-30.548" font-family="Times,serif" font-size="14.00" fill="#000000">ε</text>
</g>
<!-- q_1ᴬ -->
<g id="node4" class="node">
<title>q_1ᴬ</title>
<ellipse fill="none" stroke="#000000" cx="255.9383" cy="-82.748" rx="27.8951" ry="27.8951"/>
<text text-anchor="middle" x="255.9383" y="-79.048" font-family="Times,serif" font-size="14.00" fill="#000000">q_1ᴬ</text>
</g>
<!-- q_0ᴬ&#45;&gt;q_1ᴬ -->
<g id="edge2" class="edge">
<title>q_0ᴬ&#45;&gt;q_1ᴬ</title>
<path fill="none" stroke="#000000" d="M185.1181,-82.748C195.2444,-82.748 206.8515,-82.748 217.699,-82.748"/>
<polygon fill="#000000" stroke="#000000" points="217.7933,-86.2481 227.7933,-82.748 217.7932,-79.2481 217.7933,-86.2481"/>
<text text-anchor="middle" x="206.4908" y="-86.548" font-family="Times,serif" font-size="14.00" fill="#000000">a</text>
</g>
<!-- q_1ᴬ&#45;&gt;q_f -->
<g id="edge6" class="edge">
<title>q_1ᴬ&#45;&gt;q_f</title>
<path fill="none" stroke="#000000" d="M280.339,-68.7613C292.7374,-61.6544 307.9669,-52.9247 321.3254,-45.2675"/>
<polygon fill="#000000" stroke="#000000" points="323.2816,-48.1804 330.2168,-40.1708 319.8004,-42.1074 323.2816,-48.1804"/>
<text text-anchor="middle" x="305.3858" y="-58.548" font-family="Times,serif" font-size="14.00" fill="#000000">ε</text>
</g>
<!-- q_f&#45;&gt;q_0 -->
<g id="edge5" class="edge">
<title>q_f&#45;&gt;q_0</title>
<path fill="none" stroke="#000000" d="M327.5977,-20.3868C297.6377,-13.7842 246.914,-4.8007 202.9908,-7.748 166.292,-10.2105 124.5781,-16.2408 96.1126,-20.8528"/>
<polygon fill="#000000" stroke="#000000" points="95.186,-17.4583 85.8897,-22.5406 96.3263,-24.3649 95.186,-17.4583"/>
<text text-anchor="middle" x="206.4908" y="-11.548" font-family="Times,serif" font-size="14.00" fill="#000000">ε</text>
</g>
</g>
</svg>
