<?xml version="1.0" encoding="UTF-8" standalone="no"?>
<svg
   xmlns:dc="http://purl.org/dc/elements/1.1/"
   xmlns:cc="http://creativecommons.org/ns#"
   xmlns:rdf="http://www.w3.org/1999/02/22-rdf-syntax-ns#"
   xmlns:svg="http://www.w3.org/2000/svg"
   xmlns="http://www.w3.org/2000/svg"
   xmlns:sodipodi="http://sodipodi.sourceforge.net/DTD/sodipodi-0.dtd"
   xmlns:inkscape="http://www.inkscape.org/namespaces/inkscape"
   width="100%"
   height="100%"
   version="1.1"
   viewBox="-56.8752 -11.9499 581.67 312.851"
   preserveAspectRatio="xMidYMid meet"
   id="svg2"
   inkscape:version="0.48.3.1 r9886"
   sodipodi:docname="ap_glc_tdxr.svg">
  <metadata
     id="metadata59">
    <rdf:RDF>
      <cc:Work
         rdf:about="">
        <dc:format>image/svg+xml</dc:format>
        <dc:type
           rdf:resource="http://purl.org/dc/dcmitype/StillImage" />
        <dc:title></dc:title>
      </cc:Work>
    </rdf:RDF>
  </metadata>
  <defs
     id="defs57">
    <marker
       inkscape:stockid="Arrow1Lend"
       orient="auto"
       refY="0.0"
       refX="0.0"
       id="Arrow1Lend"
       style="overflow:visible;">
      <path
         id="path4176"
         d="M 0.0,0.0 L 5.0,-5.0 L -12.5,0.0 L 5.0,5.0 L 0.0,0.0 z "
         style="fill-rule:evenodd;stroke:#000000;stroke-width:1.0pt;"
         transform="scale(0.8) rotate(180) translate(12.5,0)" />
    </marker>
  </defs>
  <sodipodi:namedview
     pagecolor="#ffffff"
     bordercolor="#666666"
     borderopacity="1"
     objecttolerance="10"
     gridtolerance="10"
     guidetolerance="10"
     inkscape:pageopacity="0"
     inkscape:pageshadow="2"
     inkscape:window-width="1600"
     inkscape:window-height="850"
     id="namedview55"
     showgrid="false"
     inkscape:zoom="2.5555016"
     inkscape:cx="221.28616"
     inkscape:cy="175.17049"
     inkscape:window-x="0"
     inkscape:window-y="28"
     inkscape:window-maximized="1"
     inkscape:current-layer="svg2" />
  <rect
     id="svgEditorBackground"
     x="19.5"
     y="10.5"
     width="393"
     height="188"
     style="fill: none; stroke: none;" />
  <ellipse
     cx="56.5"
     cy="105.5"
     rx="30"
     ry="30"
     id="ellipse5"
     sodipodi:cx="56.5"
     sodipodi:cy="105.5"
     sodipodi:rx="30"
     sodipodi:ry="30"
     transform="translate(0.78262523,89.219277)"
     style="fill:none;stroke:#000000;stroke-width:1" />
  <text
     x="48.282627"
     y="200.71928"
     font-size="20"
     id="text7"
     style="font-size:20px;font-family:Times New Roman">q₀</text>
  <ellipse
     cx="224.5"
     cy="104.5"
     rx="30"
     ry="30"
     id="ellipse9"
     sodipodi:cx="224.5"
     sodipodi:cy="104.5"
     sodipodi:rx="30"
     sodipodi:ry="30"
     transform="translate(0.78262523,89.219277)"
     style="fill:none;stroke:#000000;stroke-width:1" />
  <text
     x="216.28262"
     y="199.71928"
     font-size="20"
     id="text11"
     style="font-size:20px;font-family:Times New Roman">q₁</text>
  <ellipse
     cx="382.5"
     cy="104.5"
     rx="30"
     ry="30"
     id="ellipse13"
     sodipodi:cx="382.5"
     sodipodi:cy="104.5"
     sodipodi:rx="30"
     sodipodi:ry="30"
     transform="translate(0.78262523,89.219277)"
     style="fill:none;stroke:#000000;stroke-width:1" />
  <text
     x="374.28262"
     y="199.71928"
     font-size="20"
     id="text15"
     style="font-size:20px;font-family:Times New Roman">q₂</text>
  <ellipse
     cx="382.5"
     cy="104.5"
     rx="24"
     ry="24"
     id="ellipse17"
     sodipodi:cx="382.5"
     sodipodi:cy="104.5"
     sodipodi:rx="24"
     sodipodi:ry="24"
     transform="translate(0.78262523,89.219277)"
     style="fill:none;stroke:#000000;stroke-width:1" />
  <polygon
     points="86.499,105.321 194.501,104.679 "
     id="polygon19"
     transform="translate(0.78262523,89.219277)"
     style="stroke:#000000;stroke-width:1" />
  <polygon
     points="186.53,109.726 194.501,104.679 186.471,99.726 "
     id="polygon21"
     transform="translate(0.78262523,89.219277)"
     style="fill:#000000;stroke-width:1" />
  <path
     d="m 212.05763,166.92228 a 22.5,22.5 0 1 1 26.45,0"
     id="path25"
     inkscape:connector-curvature="0"
     style="fill:none;stroke:#000000;stroke-width:1" />
  <text
     x="201.32607"
     y="38.674122"
     font-size="20"
     id="text27"
     style="font-size:20px;font-family:Times New Roman">ε,P/aPa</text>
  <polygon
     points="238.382,68.292 237.725,77.703 246.473,74.17 "
     id="polygon29"
     transform="translate(0.78262523,89.219277)"
     style="fill:#000000;stroke-width:1" />
  <polygon
     points="254.5,104.5 352.5,104.5 "
     id="polygon43"
     transform="translate(0.78262523,89.219277)"
     style="stroke:#000000;stroke-width:1" />
  <polygon
     points="344.5,109.5 352.5,104.5 344.5,99.5 "
     id="polygon45"
     transform="translate(0.78262523,89.219277)"
     style="fill:#000000;stroke-width:1" />
  <text
     x="271.93475"
     y="188.11002"
     font-size="20"
     id="text47"
     style="font-size:20px;font-family:Times New Roman">ε,Z₀/Z₀</text>
  <line
     id="e1_line"
     x1="241.58789"
     y1="257.89587"
     x2="241.58789"
     y2="257.89587"
     style="fill:none;stroke:#000000;stroke-width:1px" />
  <line
     id="e3_line"
     x1="253.75188"
     y1="249.78445"
     x2="427.55887"
     y2="251.52045"
     style="fill:none;stroke:#000000;stroke-width:2px" />
  <line
     id="e4_line"
     x1="426.98087"
     y1="251.52646"
     x2="426.98087"
     y2="290.34045"
     style="fill:none;stroke:#000000;stroke-width:2px" />
  <line
     id="e5_line"
     x1="426.40189"
     y1="288.60245"
     x2="252.01587"
     y2="288.02243"
     style="fill:none;stroke:#000000;stroke-width:2px" />
  <text
     x="401.19489"
     y="276.66245"
     id="e6_texte"
     style="font-size:20px;fill:#000000;font-family:Arial">Z</text>
  <text
     x="414.13187"
     y="281.45444"
     id="e7_texte"
     style="font-size:14px;fill:#000000;font-family:Arial">0</text>
  <text
     x="100.20305"
     y="186.04645"
     font-size="20"
     id="text23-7-9-7-1"
     style="font-size:20px;font-family:Times New Roman"
     inkscape:transform-center-x="-1.956563"
     inkscape:transform-center-y="-11.739378">ε,Zo/PZo</text>
  <text
     style="font-size:20px;font-family:Times New Roman"
     x="201.79587"
     y="4.8687043"
     font-size="20"
     id="text27-1">a,a/ε</text>
  <text
     style="font-size:20px;font-family:Times New Roman"
     x="199.44798"
     y="64.348221"
     font-size="20"
     id="text3363" />
  <text
     xml:space="preserve"
     style="font-size:48px;font-style:normal;font-variant:normal;font-weight:normal;font-stretch:normal;line-height:125%;letter-spacing:0px;word-spacing:0px;fill:#000000;fill-opacity:1;stroke:none;font-family:Ubuntu;-inkscape-font-specification:Ubuntu"
     x="29.739758"
     y="90.585442"
     id="text3357"
     sodipodi:linespacing="125%"
     transform="translate(-56.8752,-11.949911)"><tspan
       sodipodi:role="line"
       id="tspan3359"></tspan></text>
  <text
     style="font-size:20px;font-family:Times New Roman"
     x="201.25255"
     y="22.477766"
     font-size="20"
     id="text27-1-0"
     inkscape:transform-center-x="-1.956563"
     inkscape:transform-center-y="-8.6083982">b,b/ε</text>
  <text
     x="202.10883"
     y="57.304592"
     font-size="20"
     id="text27-11"
     style="font-size:20px;font-family:Times New Roman"
     inkscape:transform-center-y="-20.739568">ε,P/bPb</text>
  <text
     x="201.3262"
     y="74.131035"
     font-size="20"
     id="text27-9"
     style="font-size:20px;font-family:Times New Roman">ε,P/a</text>
  <text
     x="201.54338"
     y="93.305351"
     font-size="20"
     id="text27-9-4"
     style="font-size:20px;font-family:Times New Roman">ε,P/b</text>
  <text
     x="202.09164"
     y="112.87098"
     font-size="20"
     id="text27-9-4-0"
     style="font-size:20px;font-family:Times New Roman">ε,P/ε</text>
</svg>
