{
  "main": {
    "id": "d29f20946257018f",
    "type": "split",
    "children": [
      {
        "id": "793160d638884fc9",
        "type": "tabs",
        "children": [
          {
            "id": "3dc4b94ad3406857",
            "type": "leaf",
            "state": {
              "type": "markdown",
              "state": {
                "file": "docs/01delenguajesypalabras/03operacioneslenguajes.md",
                "mode": "source",
                "source": false
              }
            }
          }
        ],
        "stacked": true
      }
    ],
    "direction": "vertical"
  },
  "left": {
    "id": "40971eec24675a21",
    "type": "split",
    "children": [
      {
        "id": "9f103bc877ce03f6",
        "type": "tabs",
        "children": [
          {
            "id": "d5aa1dcc04aa3d38",
            "type": "leaf",
            "state": {
              "type": "file-explorer",
              "state": {
                "sortOrder": "alphabetical"
              }
            }
          },
          {
            "id": "68ec9fe503852c98",
            "type": "leaf",
            "state": {
              "type": "search",
              "state": {
                "query": "",
                "matchingCase": false,
                "explainSearch": false,
                "collapseAll": false,
                "extraContext": false,
                "sortOrder": "alphabetical"
              }
            }
          },
          {
            "id": "d1cfabf946cb649e",
            "type": "leaf",
            "state": {
              "type": "bookmarks",
              "state": {}
            }
          }
        ]
      }
    ],
    "direction": "horizontal",
    "width": 300
  },
  "right": {
    "id": "ee5f77a82de14e2b",
    "type": "split",
    "children": [
      {
        "id": "11b06bfbaa073068",
        "type": "tabs",
        "children": [
          {
            "id": "eb413af791ecd773",
            "type": "leaf",
            "state": {
              "type": "backlink",
              "state": {
                "file": "docs/01delenguajesypalabras/03operacioneslenguajes.md",
                "collapseAll": false,
                "extraContext": false,
                "sortOrder": "alphabetical",
                "showSearch": false,
                "searchQuery": "",
                "backlinkCollapsed": false,
                "unlinkedCollapsed": true
              }
            }
          },
          {
            "id": "0878f6db388f4e6c",
            "type": "leaf",
            "state": {
              "type": "outgoing-link",
              "state": {
                "file": "docs/01delenguajesypalabras/03operacioneslenguajes.md",
                "linksCollapsed": false,
                "unlinkedCollapsed": true
              }
            }
          },
          {
            "id": "951c6264ed5eebde",
            "type": "leaf",
            "state": {
              "type": "tag",
              "state": {
                "sortOrder": "frequency",
                "useHierarchy": true
              }
            }
          },
          {
            "id": "af768341f4760ccc",
            "type": "leaf",
            "state": {
              "type": "outline",
              "state": {
                "file": "docs/01delenguajesypalabras/03operacioneslenguajes.md"
              }
            }
          }
        ]
      }
    ],
    "direction": "horizontal",
    "width": 300,
    "collapsed": true
  },
  "left-ribbon": {
    "hiddenItems": {
      "switcher:Open quick switcher": false,
      "graph:Open graph view": false,
      "canvas:Create new canvas": false,
      "daily-notes:Open today's daily note": false,
      "templates:Insert template": false,
      "command-palette:Open command palette": false
    }
  },
  "active": "3dc4b94ad3406857",
  "lastOpenFiles": [
    "docs/01delenguajesypalabras/02básicos.md",
    "docs/01delenguajesypalabras/01abstracción.md",
    "docs/01delenguajesypalabras/_index.md",
    "docs/00intro/_index.md",
    "Untitled 1.canvas",
    "Untitled.canvas",
    "docs/01delenguajesypalabras/04hablandolenguajes.md",
    "docs/01delenguajesypalabras/03operacioneslenguajes.md"
  ]
}