<?xml version="1.0" encoding="UTF-8" standalone="no"?>
<!DOCTYPE svg PUBLIC "-//W3C//DTD SVG 1.1//EN"
 "http://www.w3.org/Graphics/SVG/1.1/DTD/svg11.dtd">
<!-- Generated by graphviz version 2.40.1 (20161225.0304)
 -->
<!-- Title: %3 Pages: 1 -->
<svg width="146pt" height="101pt"
 viewBox="0.00 0.00 174.99 121.00" xmlns="http://www.w3.org/2000/svg" xmlns:xlink="http://www.w3.org/1999/xlink">
<g id="graph0" class="graph" transform="scale(.8333 .8333) rotate(0) translate(4 116.9965)">
<title>%3</title>
<polygon fill="#ffffff" stroke="transparent" points="-4,4 -4,-116.9965 170.9931,-116.9965 170.9931,4 -4,4"/>
<!-- __initial__ -->
<g id="node1" class="node">
<title>__initial__</title>
</g>
<!-- q0 -->
<g id="node2" class="node">
<title>q0</title>
<ellipse fill="none" stroke="#000000" cx="57.4983" cy="-23.4983" rx="19.4965" ry="19.4965"/>
<text text-anchor="middle" x="57.4983" y="-19.7983" font-family="Times,serif" font-size="14.00" fill="#000000">q0</text>
</g>
<!-- __initial__&#45;&gt;q0 -->
<g id="edge1" class="edge">
<title>__initial__&#45;&gt;q0</title>
<path fill="none" stroke="#000000" d="M1.1401,-23.4983C3.9684,-23.4983 15.7387,-23.4983 27.7966,-23.4983"/>
<polygon fill="#000000" stroke="#000000" points="27.8029,-26.9984 37.8029,-23.4983 27.8029,-19.9984 27.8029,-26.9984"/>
</g>
<!-- q1 -->
<g id="node3" class="node">
<title>q1</title>
<ellipse fill="none" stroke="#000000" cx="143.4948" cy="-23.4983" rx="19.4968" ry="19.4968"/>
<ellipse fill="none" stroke="#000000" cx="143.4948" cy="-23.4983" rx="23.4965" ry="23.4965"/>
<text text-anchor="middle" x="143.4948" y="-19.7983" font-family="Times,serif" font-size="14.00" fill="#000000">q1</text>
</g>
<!-- q0&#45;&gt;q1 -->
<g id="edge2" class="edge">
<title>q0&#45;&gt;q1</title>
<path fill="none" stroke="#000000" d="M77.0122,-23.4983C86.626,-23.4983 98.4993,-23.4983 109.5395,-23.4983"/>
<polygon fill="#000000" stroke="#000000" points="109.7683,-26.9984 119.7682,-23.4983 109.7682,-19.9984 109.7683,-26.9984"/>
<text text-anchor="middle" x="98.4965" y="-27.2983" font-family="Times,serif" font-size="14.00" fill="#000000">a</text>
</g>
<!-- q1&#45;&gt;q1 -->
<g id="edge3" class="edge">
<title>q1&#45;&gt;q1</title>
<path fill="none" stroke="#000000" d="M139.4061,-46.9618C139.1241,-56.7226 140.487,-64.9965 143.4948,-64.9965 145.3747,-64.9965 146.612,-61.7645 147.2068,-56.9575"/>
<polygon fill="#000000" stroke="#000000" points="150.7044,-57.0866 147.5836,-46.9618 143.7093,-56.8229 150.7044,-57.0866"/>
<text text-anchor="middle" x="143.4948" y="-68.7965" font-family="Times,serif" font-size="14.00" fill="#000000">a</text>
</g>
<!-- q1&#45;&gt;q1 -->
<g id="edge4" class="edge">
<title>q1&#45;&gt;q1</title>
<path fill="none" stroke="#000000" d="M136.405,-46.0861C133.569,-64.2484 135.9323,-82.9965 143.4948,-82.9965 149.6393,-82.9965 152.3516,-70.6198 151.6315,-56.2367"/>
<polygon fill="#000000" stroke="#000000" points="155.0922,-55.6743 150.5847,-46.0861 148.1291,-56.3924 155.0922,-55.6743"/>
<text text-anchor="middle" x="143.4948" y="-86.7965" font-family="Times,serif" font-size="14.00" fill="#000000">b</text>
</g>
</g>
</svg>
